main\java\com\enfocat\test\Contacto.class
main\java\com\enfocat\test\ContactosServlet.class
main\java\com\enfocat\test\DBConn.class
main\java\com\enfocat\test\DBDatos.class
main\java\com\enfocat\test\HolaServlet.class
